<svg xmlns="http://www.w3.org/2000/svg" xmlns:xlink="http://www.w3.org/1999/xlink" width="1192.999" height="1192.999" viewBox="0 0 1192.999 1192.999">
  <defs>
    <linearGradient id="linear-gradient" x1="0.5" x2="0.5" y2="1" gradientUnits="objectBoundingBox">
      <stop offset="0" stop-color="#002433" stop-opacity="0.969"/>
      <stop offset="1" stop-color="#002433" stop-opacity="0.306"/>
    </linearGradient>
  </defs>
  <circle id="Ellipse_85" data-name="Ellipse 85" cx="596.5" cy="596.5" r="596.5" opacity="0.914" fill="url(#linear-gradient)" style="mix-blend-mode: multiply;isolation: isolate"/>
</svg>
