{
    "name": "acf/laptop-video",
    "title": "Laptop Video",
    "description": "Laptop Video",
    "category": "theme",
    "icon": "admin-comments",
    "apiVersion": 2,
    "keywords": [],
    "acf": {
        "mode": "preview",
        "renderTemplate": "render.php"
    },
    "styles": [
        { "name": "default", "label": "Default", "isDefault": true },
        { "name": "reverse", "label": "Reverse"}
    ],
    "style": [ "file:./style.min.css", "block-style" ],
    "supports": {
        "anchor": true,
        "color": {},
        "alignText": true,
        "spacing": {},
        "typography": {},
        "fullHeight": true
    }
}