{
    "name": "acf/news-block",
    "title": "News Block",
    "description": "News block with image and excerpt",
    "category": "theme",
    "icon": "admin-comments",
    "apiVersion": 2,
    "keywords": [
        "example"
    ],
    "acf": {
        "mode": "preview",
        "renderTemplate": "render.php"
    },
    "styles": [
        { "name": "default", "label": "Default", "isDefault": true },
        { "name": "alternative", "label": "Alternative"}
    ],
    "supports": {
        "anchor": true
    },
    "style": [ "file:./style.min.css", "block-style" ]
}
